Name,CyrillicName,BirthDate,Division,BodyweightKg,WeightClassKg,Sex,Squat1Kg,Squat2Kg,Squat3Kg,Best3SquatKg,Bench1Kg,Bench2Kg,Bench3Kg,Best3BenchKg,Deadlift1Kg,Deadlift2Kg,Deadlift3Kg,Best3DeadliftKg,TotalKg,Event,Equipment,Tested,Place
Alisa Yokhansson,Алиса Йоханссон,1988-03-29,Amateur Open,47.5,48,F,75,80,85,85,50,55,-57.5,55,95,-105,105,105,245,SBD,Wraps,Yes,1
Kristina Lytasova,Кристина Лытасова,1988-03-04,Amateur Open,47.3,48,F,70,75,77.5,77.5,40,45,-47.5,45,85,92.5,-97.5,92.5,215,SBD,Wraps,Yes,2
Alena Baranyuk,Алена Баранюк,1989-07-25,Amateur Open,51.4,52,F,87.5,92.5,-102.5,92.5,45,-50,52.5,52.5,90,95,-100,95,240,SBD,Wraps,Yes,1
Ekaterina Rumyantseva,Екатерина Румянцева,1992-06-30,Amateur Juniors 20-23,55.4,56,F,80,85,-90,85,40,42.5,45,45,92.5,-97.5,-97.5,92.5,222.5,SBD,Wraps,Yes,1
Natalya Pilipyuk,Наталья Пилипюк,1983-12-21,Amateur Open,54.8,56,F,-80,-80,80,80,40,45,47.5,47.5,120,127.5,130,130,257.5,SBD,Wraps,Yes,1
Anastasiya Bubnova,Анастасия Бубнова,1987-12-27,Amateur Open,59,60,F,65,70,75,75,-42.5,-42.5,42.5,42.5,100,-105,-105,100,217.5,SBD,Wraps,Yes,1
Elena Laur,Елена Лаур,1983-01-02,Amateur Open,65.6,67.5,F,100,105,107.5,107.5,60,62.5,65,65,127.5,-132.5,-132.5,127.5,300,SBD,Wraps,Yes,1
Evgeniya Grebenyuk,Евгения Гребенюк,1988-01-17,Amateur Open,65.8,67.5,F,-95,95,97.5,97.5,55,-60,-60,55,100,110,-117.5,110,262.5,SBD,Wraps,Yes,2
Natalya Ryakhina,Наталья Ряхина,1970-04-27,Amateur Masters 45-49,66.2,67.5,F,80,90,95,95,45,-50,-50,45,110,125,,125,265,SBD,Wraps,Yes,1
Aleksey Filatov,Алексей Филатов,1986-03-17,Amateur Open,73.9,75,M,180,190,200,200,105,110,-115,110,160,170,-180,170,480,SBD,Wraps,Yes,1
Sergey Gruzdev,Сергей Груздев,1992-04-23,Amateur Juniors 20-23,79.5,82.5,M,160,170,-175,170,112.5,117.5,-122.5,117.5,180,190,-200,190,477.5,SBD,Wraps,Yes,1
Vladislav Konstantinov,Владислав Константинов,1995-08-18,Amateur Juniors 20-23,80.3,82.5,M,-160,,,,-107.5,,,,-235,,,,,SBD,Wraps,Yes,DQ
Roman Voronin,Роман Воронин,1991-04-20,Amateur Open,81.3,82.5,M,160,170,180,180,125,135,145,145,155,170,-185,170,495,SBD,Wraps,Yes,1
Aleksandr Abdullaev,Александр Абдуллаев,1980-08-20,Amateur Open,81.4,82.5,M,150,-160,170,170,110,120,130,130,170,190,-210,190,490,SBD,Wraps,Yes,2
Vladislav Tatarinov,Владислав Татаринов,1984-01-16,Amateur Open,80.6,82.5,M,150,165,-175,165,100,110,-117.5,110,160,170,180,180,455,SBD,Wraps,Yes,3
Vyacheslav Zavyalov,Вячеслав Завьялов,1988-10-22,Amateur Open,88,90,M,200,220,-230,220,155,-165,170,170,200,-220,220,220,610,SBD,Wraps,Yes,1
Aleksandr Gribov,Александр Грибов,1984-01-09,Amateur Open,87.8,90,M,-125,130,140,140,102.5,107.5,110,110,145,160,167.5,167.5,417.5,SBD,Wraps,Yes,2
Konstantin Panasenko,Константин Панасенко,1980-09-03,Amateur Open,89.8,90,M,-130,130,135,135,105,-107.5,-107.5,105,160,170,177.5,177.5,417.5,SBD,Wraps,Yes,3
Dmitriy Vorobyov,Дмитрий Воробьёв,1990-03-27,Amateur Open,87.6,90,M,135,-140,140,140,-110,-110,-110,-110,-160,,,,,SBD,Wraps,Yes,DQ
Nikolay Ryakhin,Николай Ряхин,1965-01-25,Amateur Masters 50-54,84,90,M,140,150,160,160,-110,115,117.5,117.5,190,200,,200,477.5,SBD,Wraps,Yes,1
Daniil Katin,Даниил Катин,1999-08-24,Amateur Teen 16-17,95.5,100,M,-160,160,-180,160,100,-110,110,110,170,185,200,200,470,SBD,Wraps,Yes,1
Vladimir Mironov,Владимир Миронов,1985-05-11,Amateur Open,91.6,100,M,175,185,-192.5,185,145,147.5,150,150,210,-217.5,-217.5,210,545,SBD,Wraps,Yes,1
Rifkat Latypov,Рифкат Латыпов,1987-02-02,Amateur Open,91.6,100,M,170,180,190,190,90,100,-110,100,190,200,-210,200,490,SBD,Wraps,Yes,2
Ilya Nefedov,Илья Нефедов,1972-05-25,Amateur Open,98.5,100,M,220,222.5,-225,222.5,-150,-150,,,-250,,,,,SBD,Wraps,Yes,DQ
Igor Smirnov,Игорь Смирнов,1965-04-21,Amateur Masters 50-54,113.9,125,M,180,200,212.5,212.5,130,140,145,145,230,245,255,255,612.5,SBD,Wraps,Yes,1
Evgeniy Tagirov,Евгений Тагиров,1994-10-20,Amateur Juniors 20-23,75,75,M,180,190,200,200,90,100,-110,100,180,200,-205,200,500,SBD,Single-ply,Yes,1
Evgeniy Timakov,Евгений Тимаков,1993-07-11,Amateur Juniors 20-23,79.4,82.5,M,-220,220,-240,220,-125,-125,-125,,-200,,,,,SBD,Single-ply,Yes,DQ
Ruslan Tavtilov,Руслан Тавтилов,1980-02-26,Amateur Open,81.7,82.5,M,225,235,-245,235,-130,135,140,140,225,-235,-235,225,600,SBD,Single-ply,Yes,1
Dmitriy Patyupin,Дмитрий Патюпин,1991-11-28,Amateur Open,98.5,100,M,300,320,-330,320,-200,210,230,230,250,270,-272.5,270,820,SBD,Single-ply,Yes,1
Valeriya Dankova,Валерия Данкова,1993-10-10,Amateur Juniors 20-23,46.9,48,F,,,,,-47.5,47.5,-52.5,47.5,,,,,47.5,B,Raw,Yes,1
Ekaterina Barbashenova,Екатерина Барбашенова,1995-06-29,Amateur Juniors 20-23,47.5,48,F,,,,,42.5,47.5,-50,47.5,,,,,47.5,B,Raw,Yes,2
Kristina Dryagileva,Кристина Дрягилева,1992-02-06,Amateur Open,48,48,F,,,,,42.5,45,-47.5,45,,,,,45,B,Raw,Yes,1
Lidiya Mitrofanova,Лидия Митрофанова,1983-02-18,Amateur Open,51.3,52,F,,,,,50,52.5,55,55,,,,,55,B,Raw,Yes,1
Alena Zimina,Алена Зимина,1991-05-04,Amateur Open,55.5,56,F,,,,,50,52.5,55,55,,,,,55,B,Raw,Yes,1
Yuliya Pochaeva,Юлия Почаева,1989-02-20,Amateur Open,52.5,56,F,,,,,37.5,42.5,-47.5,42.5,,,,,42.5,B,Raw,Yes,2
Anna Sadovskova,Анна Садовскова,1989-03-09,Amateur Open,54.9,56,F,,,,,-45,-55,-55,,,,,,,B,Raw,Yes,DQ
Nadezhda Kozlovskaya,Надежда Козловская,1984-02-10,Amateur Open,58.3,60,F,,,,,-57.5,-57.5,57.5,57.5,,,,,57.5,B,Raw,Yes,1
Anastasiya Bubnova,Анастасия Бубнова,1987-12-27,Amateur Open,59,60,F,,,,,45,47.5,-50,47.5,,,,,47.5,B,Raw,Yes,2
Marina Grechishkina,Марина Гречишкина,1996-07-05,Amateur Teen 18-19,67.3,67.5,F,,,,,60,-65,65,65,,,,,65,B,Raw,Yes,1
Daniil Berdinskikh,Даниил Бердинских,2001-08-12,Amateur Teen 13-15,54.9,56,M,,,,,47.5,50,52.5,52.5,,,,,52.5,B,Raw,Yes,1
Aziz Abdusattorov,Азиз Абдусатторов,2002-02-04,Amateur Teen 13-15,66.5,67.5,M,,,,,52.5,55,60,60,,,,,60,B,Raw,Yes,1
Anton Rasskazov,Антон Рассказов,1993-10-27,Amateur Juniors 20-23,67,67.5,M,,,,,115,-117.5,,115,,,,,115,B,Raw,Yes,1
Sergey Tochilov,Сергей Точилов,1987-09-13,Amateur Open,67.2,67.5,M,,,,,135,-142.5,,135,,,,,135,B,Raw,Yes,1
Emil Mamin,Эмиль Мамин,1999-05-11,Amateur Teen 16-17,69.8,75,M,,,,,-105,110,-117.5,110,,,,,110,B,Raw,Yes,1
Andrey Pavlov #7,Андрей Павлов,1997-11-05,Amateur Teen 18-19,71.9,75,M,,,,,120,-125,125,125,,,,,125,B,Raw,Yes,1
Dmitriy Ogrin,Дмитрий Огрин,1996-09-29,Amateur Teen 18-19,72.4,75,M,,,,,105,112.5,-117.5,112.5,,,,,112.5,B,Raw,Yes,2
Nikita Abramenko,Никита Абраменко,1995-03-24,Amateur Juniors 20-23,74.2,75,M,,,,,130,-135,135,135,,,,,135,B,Raw,Yes,1
Vyacheslav Khromchenko,Вячеслав Хромченко,1992-11-01,Amateur Juniors 20-23,73.9,75,M,,,,,112.5,117.5,120,120,,,,,120,B,Raw,Yes,2
Dmitriy Vladimirov,Дмитрий Владимиров,1986-08-12,Amateur Open,74.1,75,M,,,,,150,160,-162.5,160,,,,,160,B,Raw,Yes,1
Namig Gabuev,Намиг Габуев,1989-01-30,Amateur Open,74.2,75,M,,,,,150,160,-165,160,,,,,160,B,Raw,Yes,2
Andrey Svetlov,Андрей Светлов,1990-07-23,Amateur Open,71.9,75,M,,,,,117.5,122.5,-125,122.5,,,,,122.5,B,Raw,Yes,3
Aleksey Zhuravlev,Алексей Журавлев,1990-09-09,Amateur Open,73.6,75,M,,,,,105,117.5,-122.5,117.5,,,,,117.5,B,Raw,Yes,4
Denis Bobin,Денис Бобин,1989-10-11,Amateur Open,73.8,75,M,,,,,117.5,-135,-135,117.5,,,,,117.5,B,Raw,Yes,5
Aleksandr Chelyshev,Александр Челышев,1988-11-23,Amateur Open,74.5,75,M,,,,,105,-117.5,-117.5,105,,,,,105,B,Raw,Yes,6
Denis Farutin,Денис Фарутин,1977-01-24,Amateur Open,71.5,75,M,,,,,-140,-145,-145,,,,,,,B,Raw,Yes,DQ
Sergei Ljadov,,1956-11-02,Amateur Masters 55-59,73.9,75,M,,,,,80,85,-87.5,85,,,,,85,B,Raw,Yes,1
Boris Laishin,,1950-08-06,Amateur Masters 65-69,68.3,75,M,,,,,105,107.5,110,110,,,,,110,B,Raw,Yes,1
Kirill Averin,Кирилл Аверин,2001-07-18,Amateur Teen 13-15,79,82.5,M,,,,,50,57.5,-60,57.5,,,,,57.5,B,Raw,Yes,1
Kirill Sukhanov,Кирилл Суханов,1994-12-22,Amateur Juniors 20-23,82,82.5,M,,,,,135,-140,140,140,,,,,140,B,Raw,Yes,1
Vladislav Konstantinov,Владислав Константинов,1995-08-18,Amateur Juniors 20-23,80.6,82.5,M,,,,,107.5,112.5,-120,112.5,,,,,112.5,B,Raw,Yes,2
Andrey Lebedev,Андрей Лебедев,1995-07-24,Amateur Juniors 20-23,80.2,82.5,M,,,,,-137.5,-137.5,-137.5,,,,,,,B,Raw,Yes,DQ
Andrey Dyu,Андрей Дю,1980-10-26,Amateur Open,77.9,82.5,M,,,,,-135,135,140,140,,,,,140,B,Raw,Yes,1
Yuriy Skormyashov,Юрий Скормяшов,1988-11-01,Amateur Open,79.6,82.5,M,,,,,127.5,130,-135,130,,,,,130,B,Raw,Yes,2
Shamil Petushkov,Шамиль Петушков,1975-10-16,Amateur Masters 40-44,80.3,82.5,M,,,,,130,-137.5,-137.5,130,,,,,130,B,Raw,Yes,1
Nikolay Kapitonov,Николай Капитонов,1996-08-28,Amateur Teen 18-19,84.5,90,M,,,,,-145,145,150,150,,,,,150,B,Raw,Yes,1
Vladislav Rusin,Владислав Русин,1996-06-13,Amateur Teen 18-19,85.1,90,M,,,,,110,-112.5,-112.5,110,,,,,110,B,Raw,Yes,2
Roman Yakovlev,Роман Яковлев,1984-03-15,Amateur Open,87.8,90,M,,,,,152.5,160,165,165,,,,,165,B,Raw,Yes,1
Vadim Avetisyan,Вадим Аветисян,1980-06-18,Amateur Open,89.2,90,M,,,,,150,157.5,-165,157.5,,,,,157.5,B,Raw,Yes,2
Stanislav Lebedinskiy,Станислав Лебединский,1988-05-14,Amateur Open,88.4,90,M,,,,,132.5,145,-150,145,,,,,145,B,Raw,Yes,3
Vasiliy Litvinov,Василий Литвинов,1984-12-12,Amateur Open,88.5,90,M,,,,,135,140,145,145,,,,,145,B,Raw,Yes,4
Aleksandr Shevanov,Александр Шеванов,1991-03-16,Amateur Open,88.3,90,M,,,,,132.5,137.5,140,140,,,,,140,B,Raw,Yes,5
Aleksandr Mordovskiy,Александр Мордовский,1989-09-19,Amateur Open,89,90,M,,,,,125,132.5,137.5,137.5,,,,,137.5,B,Raw,Yes,6
Eduard Komarov,Эдуард Комаров,1991-10-28,Amateur Open,85.8,90,M,,,,,127.5,132.5,135,135,,,,,135,B,Raw,Yes,7
Sergey Nechaev,Сергей Нечаев,1988-10-06,Amateur Open,88,90,M,,,,,-135,135,-145,135,,,,,135,B,Raw,Yes,8
Anton Kuzminskiy,Антон Кузьминский,1990-06-19,Amateur Open,88.6,90,M,,,,,122.5,130,-132.5,130,,,,,130,B,Raw,Yes,9
Gena Svetlov,Гена Светлов,1976-04-24,Amateur Open,89.8,90,M,,,,,-115,115,-120,115,,,,,115,B,Raw,Yes,10
Sergey Prokudin,Сергей Прокудин,1979-10-10,Amateur Open,85.6,90,M,,,,,-122.5,-122.5,-122.5,,,,,,,B,Raw,Yes,DQ
Denis Shumeyko,Денис Шумейко,1975-06-01,Amateur Masters 40-44,89.3,90,M,,,,,135,145,152.5,152.5,,,,,152.5,B,Raw,Yes,1
Valeriy Matveev,Валерий Матвеев,1960-06-12,Amateur Masters 55-59,89.2,90,M,,,,,130,137.5,-142.5,137.5,,,,,137.5,B,Raw,Yes,1
Valeriy Zheleznov,Валерий Железнов,1959-09-05,Amateur Masters 55-59,88.2,90,M,,,,,-145,-145,-145,,,,,,,B,Raw,Yes,DQ
Nikolay Anisimov,Николай Анисимов,1981-10-04,Amateur Open,98.3,100,M,,,,,177.5,185,-192.5,185,,,,,185,B,Raw,Yes,1
Konstantin Kapitonov,Константин Капитонов,1976-04-13,Amateur Open,97.8,100,M,,,,,-162.5,167.5,175,175,,,,,175,B,Raw,Yes,2
Kirill Bogdanov,Кирилл Богданов,1981-10-30,Amateur Open,98.7,100,M,,,,,162.5,175,-180,175,,,,,175,B,Raw,Yes,3
Artem Kovats,Артем Ковац,1985-05-26,Amateur Open,98.3,100,M,,,,,165,-172.5,172.5,172.5,,,,,172.5,B,Raw,Yes,4
Vachagan Bagdagyulyan,Вачаган Багдагюлян,1988-02-23,Amateur Open,95.4,100,M,,,,,157.5,-165,-165,157.5,,,,,157.5,B,Raw,Yes,5
Aleksandr Altukhov,Александр Алтухов,1989-03-31,Amateur Open,93.5,100,M,,,,,145,150,155,155,,,,,155,B,Raw,Yes,6
Ilya Fadeev,Илья Фадеев,1983-04-16,Amateur Open,96.3,100,M,,,,,150,155,-160,155,,,,,155,B,Raw,Yes,7
Andrey Askolko,Андрей Асколко,1983-08-07,Amateur Open,99.1,100,M,,,,,-125,132.5,-140,132.5,,,,,132.5,B,Raw,Yes,8
Dmitriy Petrov,Дмитрий Петров,1972-09-12,Amateur Masters 40-44,95.1,100,M,,,,,122.5,127.5,-132.5,127.5,,,,,127.5,B,Raw,Yes,1
Denis Salnikov,Денис Сальников,1975-05-27,Amateur Masters 40-44,95.6,100,M,,,,,-135,,,,,,,,,B,Raw,Yes,DQ
Konstantin Berdinskikh,Константин Бердинских,1970-08-24,Amateur Masters 45-49,99.3,100,M,,,,,160,170,175,175,,,,,175,B,Raw,Yes,1
Aleksey Saitov,Алексей Саитов,1973-09-05,Amateur Open,108.8,110,M,,,,,175,180,-187.5,180,,,,,180,B,Raw,Yes,1
Mikhail Ivanov,Михаил Иванов,1976-07-02,Amateur Open,109,110,M,,,,,152.5,157.5,160,160,,,,,160,B,Raw,Yes,2
Kirill Demidov,Кирилл Демидов,1988-12-17,Amateur Open,105.2,110,M,,,,,140,147.5,,147.5,,,,,147.5,B,Raw,Yes,3
Pavel Anufriev,Павел Ануфриев,1984-10-02,Amateur Open,104.6,110,M,,,,,140,-147.5,-147.5,140,,,,,140,B,Raw,Yes,4
Aleksey Saitov,Алексей Саитов,1973-09-05,Amateur Masters 40-44,108.8,110,M,,,,,175,180,-187.5,180,,,,,180,B,Raw,Yes,1
Igor Bogdanov,Игорь Богданов,1972-02-11,Amateur Masters 40-44,110.2,125,M,,,,,157.5,165,-170,165,,,,,165,B,Raw,Yes,1
Pavel Perov,Павел Перов,1966-08-06,Amateur Masters 45-49,116.8,125,M,,,,,170,180,187.5,187.5,,,,,187.5,B,Raw,Yes,1
Igor Petrov,Игорь Петров,1956-07-18,Amateur Masters 55-59,81.4,82.5,M,,,,,150,152.5,155,155,,,,,155,B,Single-ply,Yes,1
Roman Shamshurin,Роман Шамшурин,1992-12-10,Amateur Juniors 20-23,85.1,90,M,,,,,150,160,-175,160,,,,,160,B,Single-ply,Yes,1
Kirill Sidorenko,Кирилл Сидоренко,1980-01-12,Amateur Open,88.4,90,M,,,,,150,152.5,-155,152.5,,,,,152.5,B,Single-ply,Yes,1
Petr Golubev,Петр Голубев,1990-07-03,Amateur Open,89.6,90,M,,,,,-147.5,147.5,-155,147.5,,,,,147.5,B,Single-ply,Yes,2
Lidiya Mitrofanova,Лидия Митрофанова,1983-02-18,Amateur Open,51.3,52,F,,,,,,,,,110,115,120,120,120,D,Raw,Yes,1
Natalya Pilipyuk,Наталья Пилипюк,1983-12-21,Amateur Open,54.8,56,F,,,,,,,,,115,127.5,132.5,132.5,132.5,D,Raw,Yes,1
Anna Sadovskova,Анна Садовскова,1989-03-09,Amateur Open,54.9,56,F,,,,,,,,,95,105,-120,105,105,D,Raw,Yes,2
Yuliya Abramova,Юлия Абрамова,1982-06-29,Amateur Open,53.9,56,F,,,,,,,,,92.5,-100,,92.5,92.5,D,Raw,Yes,3
Anna Usachyova,Анна Усачёва,1997-06-27,Amateur Teen 18-19,56.6,60,F,,,,,,,,,80,90,97.5,97.5,97.5,D,Raw,Yes,1
Lyubov Senkina,Любовь Сенькина,1986-10-01,Amateur Open,59.8,60,F,,,,,,,,,112.5,117.5,-120,117.5,117.5,D,Raw,Yes,1
Anastasiya Bubnova,Анастасия Бубнова,1987-12-27,Amateur Open,59,60,F,,,,,,,,,105,-110,-110,105,105,D,Raw,Yes,2
Elena Laur,Елена Лаур,1983-01-02,Amateur Open,65.6,67.5,F,,,,,,,,,120,125,130,130,130,D,Raw,Yes,1
Olga Kuznetsova,Ольга Кузнецова,1983-08-27,Amateur Open,64.3,67.5,F,,,,,,,,,115,120,-127.5,120,120,D,Raw,Yes,2
Ivan Khovanov,Иван Хованов,2000-04-25,Amateur Teen 13-15,68.3,75,M,,,,,,,,,190,-202.5,-202.5,190,190,D,Raw,Yes,1
Marat Miloserdov,Марат Милосердов,1996-01-04,Amateur Juniors 20-23,74,75,M,,,,,,,,,-165,170,177.5,177.5,177.5,D,Raw,Yes,1
Boris Laishin,,1950-08-06,Amateur Masters 65-69,68.3,75,M,,,,,,,,,140,152.5,-157.5,152.5,152.5,D,Raw,Yes,1
Vladislav Konstantinov,Владислав Константинов,1995-08-18,Amateur Juniors 20-23,80.3,82.5,M,,,,,,,,,230,240,-250,240,240,D,Raw,Yes,1
Stanislav Stasevich,Станислав Стасевич,1992-02-22,Amateur Open,88.2,90,M,,,,,,,,,222.5,230,242.5,242.5,242.5,D,Raw,Yes,1
Andrey Pavlyuchenko,Андрей Павлюченко,1990-04-20,Amateur Open,86.7,90,M,,,,,,,,,195,215,230,230,230,D,Raw,Yes,2
Stanislav Belov,Станислав Белов,1990-11-11,Amateur Open,87.9,90,M,,,,,,,,,202.5,212.5,-222.5,212.5,212.5,D,Raw,Yes,3
Maksim Ksenofontov,Максим Ксенофонтов,1985-09-01,Amateur Open,87.5,90,M,,,,,,,,,160,170,195,195,195,D,Raw,Yes,4
Nikolay Ryakhin,Николай Ряхин,1965-01-25,Amateur Masters 50-54,84,90,M,,,,,,,,,195,205,210,210,210,D,Raw,Yes,1
Aleksandr Suvorov,Александр Суворов,1995-04-16,Amateur Juniors 20-23,96,100,M,,,,,,,,,180,202.5,217.5,217.5,217.5,D,Raw,Yes,1
Vachagan Bagdagyulyan,Вачаган Багдагюлян,1988-02-23,Amateur Open,95.4,100,M,,,,,,,,,250,260,-267.5,260,260,D,Raw,Yes,1
Aleksandr Bunin,Александр Бунин,1983-12-18,Amateur Open,95,100,M,,,,,,,,,-240,240,-260,240,240,D,Raw,Yes,2
Aleksandr Altukhov,Александр Алтухов,1989-03-31,Amateur Open,93.5,100,M,,,,,,,,,205,215,225,225,225,D,Raw,Yes,3
Aleksey Vasilev,Алексей Васильев,1971-05-07,Amateur Open,99.9,100,M,,,,,,,,,210,220,-225,220,220,D,Raw,Yes,4
Vladimir Mironov,Владимир Миронов,1985-05-11,Amateur Open,91.6,100,M,,,,,,,,,200,210,217.5,217.5,217.5,D,Raw,Yes,5
Dmitriy Petrov,Дмитрий Петров,1972-09-12,Amateur Masters 40-44,95.1,100,M,,,,,,,,,212.5,217.5,220,220,220,D,Raw,Yes,1
Aleksey Vasilev,Алексей Васильев,1971-05-07,Amateur Masters 40-44,99.9,100,M,,,,,,,,,210,220,-225,220,220,D,Raw,Yes,2
Denis Salnikov,Денис Сальников,1975-05-27,Amateur Masters 40-44,95.6,100,M,,,,,,,,,205,210,,210,210,D,Raw,Yes,3
Sergey Sosarev,Сергей Сосарев,1981-01-28,Amateur Open,106.6,110,M,,,,,,,,,220,-240,-240,220,220,D,Raw,Yes,1
Aleksandr Talerov,Александр Талеров,1983-06-08,Pro Open,81.1,82.5,M,182.5,192.5,200,200,112.5,120,125,125,212.5,-227.5,227.5,227.5,552.5,SBD,Wraps,No,1
Dmitriy Ulyankin,Дмитрий Ульянкин,1981-03-18,Pro Open,81.5,82.5,M,140,150,160,160,120,125,130,130,150,160,180,180,470,SBD,Wraps,No,2
Artyom Latyshev,Артём Латышев,1981-01-05,Pro Open,81.7,82.5,M,130,140,-150,140,110,117.5,-122.5,117.5,170,180,-190,180,437.5,SBD,Wraps,No,3
Ilya Titov,Илья Титов,1989-07-22,Pro Open,89.4,90,M,190,200,207.5,207.5,150,160,165,165,190,205,212.5,212.5,585,SBD,Wraps,No,1
Ivan Dorokhin,Иван Дорохин,1986-01-14,Pro Open,89.7,90,M,-185,185,190,190,-140,140,147.5,147.5,195,205,-212.5,205,542.5,SBD,Wraps,No,2
Maksim Kozlov,Максим Козлов,1980-05-19,Pro Open,87.8,90,M,140,-155,-155,140,120,-125,-125,120,160,175,180,180,440,SBD,Wraps,No,3
Sergey Rubinkov,Сергей Рубинков,1983-11-07,Pro Open,94.7,100,M,190,200,205,205,145,152.5,160,160,250,260,-265,260,625,SBD,Wraps,No,1
Aleksandr Ivachev,Александр Ивачев,1984-04-10,Pro Open,109.6,110,M,220,230,240,240,185,192.5,-195,192.5,270,280,290,290,722.5,SBD,Wraps,No,1
Pavel Petanov,Павел Петанов,1996-08-28,Pro Teen 18-19,114.1,125,M,165,175,182.5,182.5,112.5,120,-125,120,170,-185,,170,472.5,SBD,Wraps,No,1
Aleksey Tarasov,Алексей Тарасов,1981-05-24,Pro Open,108.8,110,M,270,-280,280,280,210,220,-225,220,250,265,,265,765,SBD,Single-ply,No,1
Alina Panasenko,Алина Панасенко,1998-03-18,Pro Teen 18-19,67.5,67.5,F,,,,,70,75,-77.5,75,,,,,75,B,Raw,No,1
Vladimir Rostun,Владимир Ростун,1981-12-11,Pro Open,82.1,82.5,M,,,,,175,185,-191,185,,,,,185,B,Raw,No,1
Evgeniy Zhelvakov,Евгений Желваков,1988-04-15,Pro Open,81.5,82.5,M,,,,,167.5,-175,-175,167.5,,,,,167.5,B,Raw,No,2
Aleksey Gerasimov,Алексей Герасимов,1979-04-07,Pro Open,79,82.5,M,,,,,100,102.5,105,105,,,,,105,B,Raw,No,3
Timofey Savchenko,Тимофей Савченко,1993-10-13,Pro Juniors 20-23,89,90,M,,,,,150,-157.5,-157.5,150,,,,,150,B,Raw,No,1
Ivan Zemerev,Иван Земерев,1990-01-14,Pro Open,88.3,90,M,,,,,150,157.5,-160,157.5,,,,,157.5,B,Raw,No,1
Bogdan Bagautdinov,Богдан Багаутдинов,1995-07-28,Pro Juniors 20-23,96.7,100,M,,,,,-190,195,-200,195,,,,,195,B,Raw,No,1
Sergey Krasavchikov,Сергей Красавчиков,1980-11-12,Pro Open,97.9,100,M,,,,,-180,190,-200,190,,,,,190,B,Raw,No,1
Pavel Bocharov,Павел Бочаров,1989-06-19,Pro Open,94.8,100,M,,,,,165,170,175,175,,,,,175,B,Raw,No,2
Ivan Solntsev,Иван Солнцев,1974-03-25,Pro Open,99.6,100,M,,,,,165,172.5,-177.5,172.5,,,,,172.5,B,Raw,No,3
Aleksey Kudrin,Алексей Кудрин,1985-03-30,Pro Open,97.6,100,M,,,,,160,165,-170,165,,,,,165,B,Raw,No,4
Dmitriy Vladimirov,Дмитрий Владимиров,1988-08-21,Pro Open,99.9,100,M,,,,,160,-165,-165,160,,,,,160,B,Raw,No,5
Ivan Solntsev,Иван Солнцев,1974-03-25,Pro Masters 40-44,99.6,100,M,,,,,165,172.5,-177.5,172.5,,,,,172.5,B,Raw,No,1
Viktor Smyshlyaev,Виктор Смышляев,1962-05-20,Pro Masters 50-54,99.4,100,M,,,,,130,135,140,140,,,,,140,B,Raw,No,1
Sergey Nemnonov,Сергей Немнонов,1984-08-29,Pro Open,101.2,110,M,,,,,145,155,-160,155,,,,,155,B,Raw,No,1
Andrey Kolesnikov,Андрей Колесников,1982-01-19,Pro Open,128.3,140,M,,,,,205,210,215,215,,,,,215,B,Raw,No,1
Vyacheslav Shchigelskiy,Вячеслав Щигельский,1989-09-04,Pro Open,137.3,140,M,,,,,195,205,-212.5,205,,,,,205,B,Raw,No,2
Aleksandr Nikitin,Александр Никитин,1980-09-23,Pro Open,98.4,100,M,,,,,-230,-230,230,230,,,,,230,B,Single-ply,No,1
Aleksey Tarasov,Алексей Тарасов,1981-05-24,Pro Open,108.8,110,M,,,,,210,,,210,,,,,210,B,Single-ply,No,1
Aleksandr Medvedev,Александр Медведев,1971-12-14,Pro Masters 40-44,109.2,110,M,,,,,230,235,240,240,,,,,240,B,Multi-ply,No,1
Artem Parkhomenko,Артем Пархоменко,1997-11-12,Pro Teen 18-19,73.8,75,M,,,,,,,,,190,200,210,210,210,D,Raw,No,1
Aleksandr Chashchin,Александр Чащин,1987-06-15,Pro Open,82.3,82.5,M,,,,,,,,,230,255,-260,255,255,D,Raw,No,1
Konstantin Fomichev,Константин Фомичев,1985-07-19,Pro Open,80.4,82.5,M,,,,,,,,,215,225,230,230,230,D,Raw,No,2
Artyom Latyshev,Артём Латышев,1981-01-05,Pro Open,81.7,82.5,M,,,,,,,,,160,170,,170,170,D,Raw,No,3
Aleksandr Savchenko,Александр Савченко,1982-01-06,Pro Open,89.1,90,M,,,,,,,,,230,240,-245,240,240,D,Raw,No,1
Aleksandr Nikitin,Александр Никитин,1980-09-23,Pro Open,98.4,100,M,,,,,,,,,265,275,290,290,290,D,Raw,No,1
Aleksey Krylov,Алексей Крылов,1988-02-21,Pro Open,100,100,M,,,,,,,,,250,262.5,267.5,267.5,267.5,D,Raw,No,2
Anatoliy Kovalev,Анатолий Ковалев,1991-08-01,Pro Open,95.7,100,M,,,,,,,,,-220,-230,245,245,245,D,Raw,No,3
Viktor Smyshlyaev,Виктор Смышляев,1962-05-20,Pro Masters 50-54,99.4,100,M,,,,,,,,,190,195,200,200,200,D,Raw,No,1
Vyacheslav Shchigelskiy,Вячеслав Щигельский,1989-09-04,Pro Open,137.3,140,M,,,,,,,,,-300,300,-312.5,300,300,D,Raw,No,1
Andrey Kolesnikov,Андрей Колесников,1982-01-19,Pro Open,128.3,140,M,,,,,,,,,-260,-275,280,280,280,D,Raw,No,2
