Place,Sex,Name,CyrillicName,BodyweightKg,Squat1Kg,Squat2Kg,Squat3Kg,Best3SquatKg,Squat4Kg,Bench1Kg,Bench2Kg,Bench3Kg,Best3BenchKg,Bench4Kg,Deadlift1Kg,Deadlift2Kg,Deadlift3Kg,Best3DeadliftKg,Deadlift4Kg,TotalKg,WeightClassKg,Event,Equipment,Tested,Division,Age,BirthDate
1,F,Olga Kontsevaya,Ольга Концевая,59.5,82.5,-87.5,-87.5,82.5,,47.5,-50,-50,47.5,,85,-95,-95,85,,215,60,SBD,Raw,Yes,Juniors 20-23,22,1995-07-08
1,F,Elizaveta Ipatova,Елизавета Ипатова,67.5,-105,105,110,110,,67.5,70,-72.5,70,,115,120,-125,120,,300,67.5,SBD,Raw,Yes,Teen 18-19,18,2000-03-10
1,F,Kseniya Vorobeva,Ксения Воробьева,66,95,97.5,100,100,,60,67.5,-70,67.5,,110,117.5,125,125,,292.5,67.5,SBD,Raw,Yes,Open,31,1986-09-18
1,M,Ilya Piskunov,Илья Пискунов,50.6,117.5,125,-127.5,125,,85,-90,-90,85,,160,167.5,172.5,172.5,,382.5,52,SBD,Raw,Yes,Teen 18-19,19,1998-10-19
1,M,Pyotr Gvozdev,Пётр Гвоздев,56.3,130,140,-145,140,,110,115,117.5,117.5,,150,-160,160,160,,417.5,60,SBD,Raw,Yes,Open,26,1991-05-27
1,M,Ivan Vakhrushev,Иван Вахрушев,66.6,140,-145,-145,140,,85,92.5,95,95,,-190,-195,195,195,,430,67.5,SBD,Raw,Yes,Teen 18-19,19,1998-08-02
2,M,Dmitriy Fedorov,Дмитрий Федоров,66.7,140,150,155,155,,90,97.5,100,100,,160,175,-185,175,,430,67.5,SBD,Raw,Yes,Teen 18-19,19,1998-10-21
1,M,Viktor Makarov,Виктор Макаров,67.1,140,-150,150,150,,100,105,,105,,200,210,-222.5,210,,465,67.5,SBD,Raw,Yes,Open,25,1993-05-07
1,M,Maksim Usov,Максим Усов,73.9,-165,-165,165,165,,135,140,-142.5,140,,165,-175,175,175,,480,75,SBD,Raw,Yes,Open,31,1986-05-28
2,M,Aleksandr Kurochkin,Александр Курочкин,72.2,125,140,-150,140,,100,107.5,112.5,112.5,,150,160,170,170,,422.5,75,SBD,Raw,Yes,Open,27,1990-09-06
3,M,Kirill Ivanov,Кирилл Иванов,72.8,135,-140,-140,135,,95,100,-105,100,,145,150,155,155,,390,75,SBD,Raw,Yes,Open,33,1985-02-21
DQ,M,Dzhalil Kyazimov,Джалил Кязимов,72.3,-150,-150,-150,,,,,,,,,,,,,,75,SBD,Raw,Yes,Open,24,1993-12-08
1,M,Egor Denisov,Егор Денисов,80.25,110,117.5,130,130,,92.5,105,-107.5,105,,192.5,205,-207.5,205,,440,82.5,SBD,Raw,Yes,Teen 18-19,18,2000-03-28
1,M,Viktor Aun,Виктор Аун,82.25,175,185,-190,185,,-125,125,-130,125,,215,225,230,230,,540,82.5,SBD,Raw,Yes,Open,39,1978-05-29
1,M,Egor Voronov,Егор Воронов,86.8,120,130,135,135,,95,-105,105,105,,140,150,160,160,,400,90,SBD,Raw,Yes,Teen 16-17,17,2000-11-13
1,M,Vladimir Dvurechenskiy,Владимир Двуреченский,84.25,175,-190,190,190,,125,135,-145,135,,175,190,200,200,,525,90,SBD,Raw,Yes,Open,40,1977-05-29
2,M,Say-Kherel Tyulyush,Сай-Херел Тюлюш,89.8,165,-172.5,175,175,,130,135,140,140,,205,-222.5,-222.5,205,,520,90,SBD,Raw,Yes,Open,30,1988-03-02
1,M,Konstantin Sopikov,Константин Сопиков,97.9,-240,240,-250,240,,150,-157.5,160,160,,280,300,-310,300,,700,100,SBD,Raw,Yes,Open,22,1995-11-14
2,M,Oleg Krivolapov,Олег Криволапов,93.3,-145,145,150,150,,100,105,-110,105,,145,155,165,165,,420,100,SBD,Raw,Yes,Open,27,1990-06-06
3,M,Viktor Glushkov,Виктор Глушков,91.7,120,125,130,130,,90,95,-100,95,,120,125,130,130,,355,100,SBD,Raw,Yes,Open,28,1989-09-28
1,M,Dmitriy Lavrentev,Дмитрий Лаврентьев,108,180,195,-210,195,,-100,102.5,-110,102.5,,-197.5,197.5,-205,197.5,,495,110,SBD,Raw,Yes,Teen 18-19,18,2000-04-07
1,M,Samir Babaev,Самир Бабаев,111,200,210,220,220,,150,160,170,170,,230,240,250,250,,640,125,SBD,Raw,Yes,Open,31,1987-01-21
1,M,Alekey Chir,Алекей Чир,66.8,130,140,150,150,,100,110,-120,110,,220,227.5,,227.5,,487.5,67.5,SBD,Raw,No,Open,30,1987-06-30
1,M,Ruslan Lopatin,Руслан Лопатин,80.5,182.5,-192.5,-192.5,182.5,,140,147.5,150,150,,242.5,-250,250,250,,582.5,82.5,SBD,Raw,No,Juniors 20-23,22,1995-05-23
1,M,Denis Fedulaev,Денис Федулаев,88.4,190,200,-205,200,,-160,170,-177.5,170,,240,-250,,240,,610,90,SBD,Raw,No,Open,30,1987-12-16
2,M,Pavel Gorovoy,Павел Горовой,85.1,80,-90,-95,80,,92.5,97.5,-100,97.5,,80,95,110,110,,287.5,90,SBD,Raw,No,Open,25,1992-11-30
1,M,Maksim Ivanov #6,Максим Иванов,94.6,210,-225,225,225,,145,155,-162.5,155,,240,250,265,265,,645,100,SBD,Raw,No,Open,28,1989-06-16
2,M,Valeriy Mikheev,Валерий Михеев,98,-210,-220,220,220,,-165,-170,170,170,,210,-230,,210,,600,100,SBD,Raw,No,Open,53,1965-04-27
3,M,Vyacheslav Yablokov,Вячеслав Яблоков,93.4,-155,-155,155,155,,-145,150,-155,150,,-200,200,-210,200,,505,100,SBD,Raw,No,Open,27,1990-08-20
1,M,Boris Torlopov,Борис Торлопов,108.9,225,230,-232.5,230,,160,170,177.5,177.5,,270,280,-285,280,,687.5,110,SBD,Raw,No,Open,41,1976-08-02
1,F,Erika Fitis,Эрика Фитис,47.7,90,100,-107.5,100,,42.5,47.5,-50,47.5,,100,-115,115,115,,262.5,48,SBD,Wraps,Yes,Open,20,1997-11-30
1,M,Sergey Melnikov,Сергей Мельников,80.95,155,165,-170,165,,92.5,100,,100,,192.5,-200,,192.5,,457.5,82.5,SBD,Wraps,Yes,Teen 16-17,16,2001-11-30
1,M,Dmitriy Vasilev,Дмитрий Васильев,88.1,170,-180,180,180,,115,120,-127.5,120,,220,-235,235,235,,535,90,SBD,Wraps,Yes,Open,33,1985-01-27
1,M,Daniil Sharov,Даниил Шаров,83.1,190,205,210,210,,110,-120,-120,110,,-210,210,230,230,,550,90,SBD,Wraps,No,Teen 16-17,17,2000-10-03
DQ,M,Viktor Mikhaylov,Виктор Михайлов,89.3,-240,240,-250,240,,165,-172.5,-172.5,165,,-300,-300,-322.5,,,,90,SBD,Wraps,No,Open,21,1997-01-31
1,M,Ilya Efimenko,Илья Ефименко,92.4,170,180,-200,180,,115,127.5,-132.5,127.5,,170,180,-190,180,,487.5,100,SBD,Wraps,No,Teen 18-19,19,1998-07-09
1,M,Artyom Poryadin,Артём Порядин,103.5,-280,-300,300,300,,180,195,200,200,,260,-267.5,-267.5,260,,760,110,SBD,Wraps,No,Open,23,1995-01-11
2,M,Vasiliy Okrugin,Василий Округин,109.8,245,255,267.5,267.5,,187.5,195,-200,195,,265,-280,285,285,,747.5,110,SBD,Wraps,No,Open,29,1988-11-22
3,M,Dmitriy Shchukin,Дмитрий Щукин,103.5,260,275,280,280,,180,190,200,200,,245,250,-260,250,,730,110,SBD,Wraps,No,Open,27,1990-11-03
1,M,Maksim Chepurin,Максим Чепурин,121.7,265,270,-285,270,,180,190,-200,190,,-260,260,-267.5,260,,720,125,SBD,Wraps,No,Open,39,1979-04-05
DQ,M,Adeksey Blinov,Адексей Блинов,88.8,-245,-255,-255,,,,,,,,,,,,,,90,SBD,Wraps,No,Open,36,1981-10-05
1,M,Aleksandr Kosarev,Александр Косарев,94.5,275,-285,,275,,-180,185,195,195,,270,-285,-285,270,,740,100,SBD,Wraps,No,Open,21,1996-08-03
DQ,M,Oleg Pashkov,Олег Пашков,109.5,-300,-300,-300,,,,,,,,,,,,,,110,SBD,Wraps,No,Open,31,1986-07-04
DQ,M,Ruslan Grishechko,Руслан Гришечко,113.3,-255,-265,-265,,,,,,,,,,,,,,125,SBD,Wraps,No,Open,40,1977-07-07
1,M,Dmitriy Fedorov,Дмитрий Федоров,66.7,140,150,155,155,,,,,,,,,,,,155,67.5,S,Raw,Yes,Teen 18-19,19,1998-10-21
1,M,Dmitriy Lavrentev,Дмитрий Лаврентьев,109,180,195,-210,195,,,,,,,,,,,,195,110,S,Raw,Yes,Teen 18-19,18,2000-04-07
1,F,Anastasiya Dil,Анастасия Диль,45.7,80,85,-92.5,85,,,,,,,,,,,,85,48,S,Wraps,Yes,Teen 18-19,19,1998-07-25
1,M,Sergey Melnikov,Сергей Мельников,80.95,155,165,-170,165,,,,,,,,,,,,165,82.5,S,Wraps,Yes,Teen 16-17,16,2001-11-30
1,F,Anastasiya Shaternikova,Анастасия Шатерникова,42.4,,,,,,40,47.5,-50,47.5,,,,,,,47.5,44,B,Raw,Yes,Juniors 20-23,21,1997-05-15
2,F,Viktoriya Antoshchuk,Виктория Антощук,44,,,,,,37.5,40,42.5,42.5,,,,,,,42.5,44,B,Raw,Yes,Juniors 20-23,22,1995-06-12
1,F,Anastasiya Dil,Анастасия Диль,45.7,,,,,,42.5,45,-47.5,45,,,,,,,45,48,B,Raw,Yes,Teen 18-19,19,1998-07-25
DQ,F,Aleksandra Vasileva,Александра Васильева,51.2,,,,,,-50,-50,,,,,,,,,,52,B,Raw,Yes,Teen 18-19,18,1999-07-17
1,F,Ekaterina Cherdakova,Екатерина Чердакова,52,,,,,,50,-55,-57.5,50,,,,,,,50,52,B,Raw,Yes,Juniors 20-23,22,1995-06-14
1,F,Anastasiya Chelushkina,Анастасия Челушкина,52,,,,,,50,-52.5,52.5,52.5,,,,,,,52.5,52,B,Raw,Yes,Open,28,1990-02-16
1,F,Anna Krasnyanskaya,Анна Краснянская,54.3,,,,,,62.5,-67.5,-67.5,62.5,,,,,,,62.5,56,B,Raw,Yes,Open,35,1983-01-21
2,F,Polina Ivanova,Полина Иванова,55.8,,,,,,60,62.5,-65,62.5,,,,,,,62.5,56,B,Raw,Yes,Open,28,1989-05-20
3,F,Anastasiya Kosheleva,Анастасия Кошелева,55.7,,,,,,50,-55,-55,50,,,,,,,50,56,B,Raw,Yes,Open,24,1994-01-01
1,F,Elizaveta Ipatova,Елизавета Ипатова,66,,,,,,67.5,70,-72.5,70,,,,,,,70,67.5,B,Raw,Yes,Teen 18-19,18,2000-03-10
DQ,F,Yuliya Zhavoronkova,Юлия Жаворонкова,65.5,,,,,,-70,-75,-75,,,,,,,,,67.5,B,Raw,Yes,Juniors 20-23,22,1996-02-28
1,F,Anastasiya Savitskaya,Анастасия Савицкая,66,,,,,,70,75,80,80,,,,,,,80,67.5,B,Raw,Yes,Open,29,1988-09-24
1,M,Aleksandr Sokolov,Александр Соколов,51.9,,,,,,105,110,-112.5,110,,,,,,,110,52,B,Raw,Yes,Open,30,1987-07-31
1,M,Yuriy Mikheev,Юрий Михеев,63.7,,,,,,80,-90,-90,80,,,,,,,80,67.5,B,Raw,Yes,Teen 13-15,15,2002-12-23
1,M,Maksim Vasilev,Максим Васильев,69.4,,,,,,75,80,-85,80,,,,,,,80,75,B,Raw,Yes,Teen 16-17,17,2001-04-07
1,M,Anton Klyuchnik,Антон Ключник,74.3,,,,,,147.5,-155,-155,147.5,,,,,,,147.5,75,B,Raw,Yes,Open,28,1989-08-01
2,M,Emil Bakhshiev,Эмиль Бахшиев,74.1,,,,,,-130,130,-135,130,,,,,,,130,75,B,Raw,Yes,Open,28,1989-12-07
3,M,Andrey Muntyanu,Андрей Мунтяну,74.1,,,,,,112,117.5,120,120,,,,,,,120,75,B,Raw,Yes,Open,36,1981-10-02
4,M,Dzhalil Kyazimov,Джалил Кязимов,72.3,,,,,,100,-110,,100,,,,,,,100,75,B,Raw,Yes,Open,24,1993-12-08
1,M,Dmitriy Galeev,Дмитрий Галеев,81.4,,,,,,120,127.5,-132.5,127.5,,,,,,,127.5,82.5,B,Raw,Yes,Teen 16-17,17,2000-09-04
1,M,Georiy Mikheev,Георий Михеев,80.3,,,,,,145,155,-160,155,,,,,,,155,82.5,B,Raw,Yes,Juniors 20-23,22,1996-01-12
2,M,Mikhail Zenchurin,Михаил Зенчурин,81.6,,,,,,140,145,150,150,,,,,,,150,82.5,B,Raw,Yes,Juniors 20-23,23,1994-11-28
3,M,Ivan Fomin,Иван Фомин,80.4,,,,,,-120,120,127.5,127.5,,,,,,,127.5,82.5,B,Raw,Yes,Juniors 20-23,23,1995-03-02
4,M,Dmitriy Saygutin,Дмитрий Сайгутин,80.3,,,,,,120,125,-127.5,125,,,,,,,125,82.5,B,Raw,Yes,Juniors 20-23,20,1998-03-13
1,M,Sergey Roslyakov,Сергей Росляков,82.15,,,,,,162.5,-167.5,-167.5,162.5,,,,,,,162.5,82.5,B,Raw,Yes,Open,31,1986-12-08
2,M,Sergey Mironov,Сергей Миронов,81.5,,,,,,135,145,150,150,,,,,,,150,82.5,B,Raw,Yes,Open,28,1990-03-19
3,M,Aleksandr Popkov,Александр Попков,81.9,,,,,,127.5,135,-145,135,,,,,,,135,82.5,B,Raw,Yes,Open,29,1988-08-21
4,M,Vladimir Dammer,Владимир Даммер,81.3,,,,,,130,-145,-145,130,,,,,,,130,82.5,B,Raw,Yes,Open,32,1985-06-27
5,M,Evgeniy Shurmin,Евгений Шурмин,81.2,,,,,,120,-127.5,-127.5,120,,,,,,,120,82.5,B,Raw,Yes,Open,27,1990-10-21
6,M,Suren Khachatryan,Сурен Хачатрян,82.1,,,,,,105,110,-112.5,110,,,,,,,110,82.5,B,Raw,Yes,Open,26,1992-01-04
7,M,Konstantin Kryukov,Константин Крюков,81.7,,,,,,105,107.5,-110,107.5,,,,,,,107.5,82.5,B,Raw,Yes,Open,25,1992-06-28
1,M,Leonid Aleksandrov,Леонид Александров,80.9,,,,,,152.5,-157.5,-157.5,152.5,,,,,,,152.5,82.5,B,Raw,Yes,Masters 45-49,46,1971-07-15
2,M,Maksim Masalskiy,Максим Масальский,81.1,,,,,,127.5,-130,,127.5,,,,,,,127.5,82.5,B,Raw,Yes,Masters 40-44,41,1977-01-16
1,M,Ilya Dergunov,Илья Дергунов,82.1,,,,,,120,-127.5,-127.5,120,,,,,,,120,82.5,B,Raw,Yes,Masters 50-54,54,1963-06-11
1,M,Sabit Mukanov,Сабит Муканов,85.6,,,,,,100,-105,-105,100,,,,,,,100,90,B,Raw,Yes,Juniors 20-23,22,1996-02-14
1,M,Aleksandr Fedorov,Александр Федоров,87.3,,,,,,155,165,-170,165,,,,,,,165,90,B,Raw,Yes,Open,28,1990-02-15
2,M,Pavel Gladkov,Павел Гладков,89.5,,,,,,160,165,-167.5,165,,,,,,,165,90,B,Raw,Yes,Open,28,1989-11-18
3,M,Andrey Kuznetsov,Андрей Кузнецов,87.1,,,,,,155,160,-167.5,160,,,,,,,160,90,B,Raw,Yes,Open,33,1984-11-09
4,M,Anton Frolov,Антон Фролов,87.9,,,,,,150,160,-167.5,160,,,,,,,160,90,B,Raw,Yes,Open,36,1981-12-29
5,M,Vladimir Drozdov,Владимир Дроздов,88.4,,,,,,145,152.5,157.5,157.5,,,,,,,157.5,90,B,Raw,Yes,Open,24,1994-04-20
6,M,Aleksey Susloparov,Алексей Суслопаров,90,,,,,,135,140,145,145,,,,,,,145,90,B,Raw,Yes,Open,36,1982-04-20
7,M,Ruslan Mazurov,Руслан Мазуров,88.1,,,,,,130,-132.5,132.5,132.5,,,,,,,132.5,90,B,Raw,Yes,Open,36,1981-09-06
8,M,Pavel Ivanov,Павел Иванов,88.8,,,,,,125,130,-135,130,,,,,,,130,90,B,Raw,Yes,Open,35,1983-01-06
9,M,Sergey Tuzovskiy,Сергей Тузовский,89.1,,,,,,127.5,-132.5,-132.5,127.5,,,,,,,127.5,90,B,Raw,Yes,Open,29,1988-05-31
1,M,Aleksandr Ponomarev,Александр Пономарев,88.5,,,,,,137.5,145,152.5,152.5,,,,,,,152.5,90,B,Raw,Yes,Masters 40-44,41,1976-11-14
2,M,Igor Fomin,Игорь Фомин,88.8,,,,,,-132.5,132.5,-135,132.5,,,,,,,132.5,90,B,Raw,Yes,Masters 45-49,49,1969-01-29
1,M,Evgeniy Buzin,Евгений Бузин,98.5,,,,,,200,207.5,215,215,,,,,,,215,100,B,Raw,Yes,Open,31,1987-02-07
2,M,Aleksandr Ageev,Александр Агеев,97.7,,,,,,200,210,-215,210,,,,,,,210,100,B,Raw,Yes,Open,25,1992-11-26
3,M,Aleksandr Snegiryov,Александр Снегирёв,99.5,,,,,,150,-160,160,160,,,,,,,160,100,B,Raw,Yes,Open,26,1992-03-13
4,M,Vyacheslav Starikov,Вячеслав Стариков,99.7,,,,,,152.5,-157.5,-157.5,152.5,,,,,,,152.5,100,B,Raw,Yes,Open,27,1990-08-04
5,M,Aleksandr Andrievskiy,Александр Андриевский,95.5,,,,,,140,150,-155,150,,,,,,,150,100,B,Raw,Yes,Open,27,1990-05-22
1,M,Yuriy Malchevskiy,Юрий Мальчевский,99.8,,,,,,142.5,147.5,-150,147.5,,,,,,,147.5,100,B,Raw,Yes,Masters 55-59,57,1961-04-11
1,M,Ivan Popov,Иван Попов,108.6,,,,,,107.5,-110,-110,107.5,,,,,,,107.5,110,B,Raw,Yes,Teen 13-15,15,2002-12-10
1,M,Vadim Smirnov,Вадим Смирнов,103.3,,,,,,205,210,-215,210,,,,,,,210,110,B,Raw,Yes,Open,35,1982-10-13
2,M,Aleksandr Tsivanyuk,Александр Циванюк,109.5,,,,,,195,202.5,-205,202.5,,,,,,,202.5,110,B,Raw,Yes,Open,36,1981-11-23
3,M,Sergey Konyakhin,Сергей Коняхин,110,,,,,,-147.5,150,-167.5,150,,,,,,,150,110,B,Raw,Yes,Open,33,1984-09-18
1,M,Yuriy Prosyanik,Юрий Просяник,108,,,,,,-160,-167.5,167.5,167.5,,,,,,,167.5,110,B,Raw,Yes,Masters 45-49,47,1971-05-19
1,F,Anastasiya Kovaleva,Анастасия Ковалева,67,,,,,,37.5,40,-42.5,40,,,,,,,40,67.5,B,Raw,No,Open,25,1993-03-27
1,M,Andrey Sukhovolskiy,Андрей Суховольский,71.9,,,,,,140,-147.5,-152.5,140,,,,,,,140,75,B,Raw,No,Open,27,1990-05-23
2,M,Maksim Mansurov,Максим Мансуров,74.9,,,,,,105,-112.5,-112.5,105,,,,,,,105,75,B,Raw,No,Open,33,1984-08-28
1,M,Nikolay Efanov,Николай Ефанов,82,,,,,,155,160,165,165,,,,,,,165,82.5,B,Raw,No,Open,22,1995-11-08
1,M,Nikita Benedek,Никита Бэнэдэк,88.3,,,,,,105,110,-115,110,,,,,,,110,90,B,Raw,No,Teen 16-17,16,2002-05-05
1,M,Nikita Styazhkin,Никита Стяжкин,89.9,,,,,,-160,160,-170,160,,,,,,,160,90,B,Raw,No,Teen 18-19,18,1999-06-17
1,M,Ivan Romanov,Иван Романов,87.2,,,,,,195,202.5,207.5,207.5,,,,,,,207.5,90,B,Raw,No,Open,37,1980-05-30
2,M,Nikolay Gudkov,Николай Гудков,87.4,,,,,,-160,165,167.5,167.5,,,,,,,167.5,90,B,Raw,No,Open,29,1988-11-07
3,M,Andrey Larionov,Андрей Ларионов,88.7,,,,,,152.5,160,167.5,167.5,,,,,,,167.5,90,B,Raw,No,Open,30,1987-10-27
1,M,Denis Romanov,Денис Романов,99.3,,,,,,220,230,,230,,,,,,,230,100,B,Raw,No,Open,24,1994-04-24
2,M,Sergey Kochenov,Сергей Коченов,94.5,,,,,,170,180,-185,180,,,,,,,180,100,B,Raw,No,Open,35,1982-06-27
3,M,Viktor Garanin,Виктор Гаранин,98.2,,,,,,175,-180,180,180,,,,,,,180,100,B,Raw,No,Open,23,1994-07-15
4,M,Maksim Burov,Максим Буров,96.6,,,,,,175,-185,-185,175,,,,,,,175,100,B,Raw,No,Open,29,1989-05-17
5,M,Dorian Moroz,Дориан Мороз,96.7,,,,,,145,152.5,160,160,,,,,,,160,100,B,Raw,No,Open,30,1988-04-11
DQ,M,Ilya Zaripov,Илья Зарипов,98.3,,,,,,-165,-165,-165,,,,,,,,,100,B,Raw,No,Open,26,1991-09-04
1,M,Gennadiy Serkin,Геннадий Серкин,106.7,,,,,,172.5,175,180,180,,,,,,,180,110,B,Raw,No,Open,29,1988-10-31
2,M,Nikolay Plyasunov,Николай Плясунов,104.2,,,,,,160,167.5,175,175,,,,,,,175,110,B,Raw,No,Open,27,1991-03-25
DQ,M,Vasiliy Vdovenko,Василий Вдовенко,121,,,,,,-202.5,-202.5,-202.5,,,,,,,,,125,B,Raw,No,Open,30,1987-09-04
1,M,Maksim Gramatunov,Максим Граматунов,115.6,,,,,,110,-115,-115,110,,,,,,,110,125,B,Raw,No,Masters 40-44,41,1976-08-25
1,M,Dmitriy Bubnov,Дмитрий Бубнов,132.7,,,,,,230,-245,,230,,,,,,,230,140,B,Raw,No,Open,44,1973-10-14
1,M,Aleksandr Rogatenko,Александр Рогатенко,89.7,,,,,,180,190,200,200,,,,,,,200,90,B,Raw,Yes,Open,36,1982-05-07
2,M,Vitaliy Ababkov,Виталий Абабков,89.3,,,,,,180,192.5,-200,192.5,,,,,,,192.5,90,B,Raw,Yes,Open,48,1970-02-18
DQ,M,Sergey Shaposhnikov,Сергей Шапошников,88.2,,,,,,-165,-165,-175,,,,,,,,,90,B,Raw,Yes,Masters 45-49,45,1973-03-29
1,M,Vitaliy Mitrofanov,Виталий Митрофанов,97.25,,,,,,-187.5,187.5,-195,187.5,,,,,,,187.5,100,B,Raw,Yes,Open,32,1986-03-11
1,M,Roman Rebushev,Роман Ребушев,121.75,,,,,,220,-242.5,242.5,242.5,,,,,,,242.5,125,B,Raw,Yes,Open,31,1986-07-16
1,M,Igor Grin,Игорь Грин,82.1,,,,,,160,175,-190,175,,,,,,,175,82.5,B,Single-ply,No,Open,27,1990-09-19
DQ,M,Viktor Plakhuta,Виктор Плахута,83.2,,,,,,-200,-205,-205,,,,,,,,,90,B,Single-ply,No,Open,32,1985-12-14
1,M,Konstantin Pleshkov,Константин Плешков,98,,,,,,222.5,-227.5,227.5,227.5,,,,,,,227.5,100,B,Single-ply,No,Open,44,1974-02-23
2,M,Dmitriy Latfulin,Дмитрий Латфулин,96,,,,,,180,-192.5,-192.5,180,,,,,,,180,100,B,Single-ply,No,Open,24,1993-08-14
1,M,Konstantin Pleshkov,Константин Плешков,98,,,,,,222.5,-227.5,227.5,227.5,,,,,,,227.5,100,B,Single-ply,No,Masters 40-44,44,1974-02-23
1,M,Oleg Pashkov,Олег Пашков,109.5,,,,,,-250,-250,250,250,,,,,,,250,110,B,Single-ply,No,Open,31,1986-07-04
2,M,Vadim Zakryzhevskiy,Вадим Закрыжевский,105.4,,,,,,190,200,-210,200,,,,,,,200,110,B,Single-ply,No,Open,26,1991-08-27
1,M,Andrey Bashkov,Андрей Башков,117.2,,,,,,-300,-310,310,310,,,,,,,310,125,B,Single-ply,No,Open,36,1981-09-23
2,M,Ruslan Grishechko,Руслан Гришечко,113.3,,,,,,180,-190,190,190,,,,,,,190,125,B,Single-ply,No,Open,40,1977-07-07
1,M,Dmitriy Dymov,Дмитрий Дымов,108.1,,,,,,235,242.5,-250,242.5,,,,,,,242.5,110,B,Multi-ply,Yes,Open,33,1984-07-21
1,M,Yaroslav Andrianov,Ярослав Андрианов,115.8,,,,,,-310,320,-335,320,,,,,,,320,125,B,Multi-ply,Yes,Open,31,1986-07-11
1,M,Viktor Mistratov,Виктор Мистратов,106.8,,,,,,270,290,300,300,320.5,,,,,,300,110,B,Multi-ply,No,Open,37,1981-02-10
1,M,Yuriy Sufimov,Юрий Суфимов,114.1,,,,,,-285,-285,285,285,,,,,,,285,125,B,Multi-ply,No,Open,48,1970-04-20
1,M,Yuriy Sufimov,Юрий Суфимов,114.1,,,,,,-285,-285,285,285,,,,,,,285,125,B,Multi-ply,No,Masters 45-49,48,1970-04-20
1,M,Aleksandr Ponomarev,Александр Пономарев,88.5,,,,,,185,200,215,215,,,,,,,215,90,B,Multi-ply,Yes,Masters 40-44,41,1976-11-14
1,M,Maksim Ermolin,Максим Ермолин,97.1,,,,,,-190,195,200,200,,,,,,,200,100,B,Multi-ply,Yes,Open,25,1992-07-11
1,M,Stanislav Babaev,Станислав Бабаев,109.5,,,,,,-242.5,242.5,250,250,,,,,,,250,110,B,Multi-ply,Yes,Open,29,1989-04-25
1,M,Vyacheslav Kirsanov,Вячеслав Кирсанов,77.2,,,,,,-220,-235,235,235,,,,,,,235,82.5,B,Multi-ply,No,Open,36,1982-04-06
2,M,Aleksey Verkhoturov,Алексей Верхотуров,82.5,,,,,,220,-235,-235,220,,,,,,,220,82.5,B,Multi-ply,No,Open,35,1983-03-30
1,M,Viktor Garanin,Виктор Гаранин,98.2,,,,,,-240,240,245,245,250,,,,,,245,100,B,Multi-ply,No,Juniors 20-23,23,1994-07-15
1,M,Artur Chepanov,Артур Чепанов,98.2,,,,,,220,235,-250,235,,,,,,,235,100,B,Multi-ply,No,Open,30,1987-11-11
1,M,Dmitriy Andryushchenko,Дмитрий Андрющенко,120.6,,,,,,265,285,305,305,,,,,,,305,125,B,Multi-ply,No,Open,34,1983-10-24
2,M,Maksim Chepurin,Максим Чепурин,121.7,,,,,,230,-240,240,240,,,,,,,240,125,B,Multi-ply,No,Open,39,1979-04-05
1,F,Erika Fitis,Эрика Фитис,47,,,,,,,,,,,100,-115,115,115,,115,48,D,Raw,Yes,Open,20,1997-11-30
1,F,Yuliya Medvedeva #2,Юлия Медведева,53.4,,,,,,,,,,,80,90,-100,90,,90,56,D,Raw,Yes,Teen 16-17,16,2002-02-27
1,F,Elnara Bagirova,Эльнара Багирова,54.4,,,,,,,,,,,95,100,-107.5,100,,100,56,D,Raw,Yes,Open,29,1988-05-27
1,F,Elizaveta May,Елизавета Май,58.4,,,,,,,,,,,95,100,107.5,107.5,,107.5,60,D,Raw,Yes,Juniors 20-23,20,1997-07-24
1,F,Yuliya Zhavoronkova,Юлия Жаворонкова,65.5,,,,,,,,,,,115,122.5,-130,122.5,,122.5,67.5,D,Raw,Yes,Juniors 20-23,22,1996-02-28
1,F,Anastasiya Savitskaya,Анастасия Савицкая,66,,,,,,,,,,,130,140,145,145,,145,67.5,D,Raw,Yes,Open,29,1988-09-24
2,F,Mariya Sokolova,Мария Соколова,67.1,,,,,,,,,,,140,145,-150,145,,145,67.5,D,Raw,Yes,Open,17,2000-09-18
1,M,Avaangyr Saryglar,Аваангыр Сарыглар,52,,,,,,,,,,,-135,135,142.5,142.5,,142.5,52,D,Raw,Yes,Teen 13-15,15,2002-12-12
1,M,Vyacheslav Zubarev,Вячеслав Зубарев,66,,,,,,,,,,,100,110,120,120,,120,67.5,D,Raw,Yes,Teen 16-17,16,2001-05-26
1,M,Ivan Vakhrushev,Иван Вахрушев,66.6,,,,,,,,,,,-190,-195,195,195,,195,67.5,D,Raw,Yes,Teen 18-19,19,1998-08-02
2,M,Dmitriy Fedorov,Дмитрий Федоров,66.7,,,,,,,,,,,160,175,-185,175,,175,67.5,D,Raw,Yes,Teen 18-19,19,1998-10-21
1,M,Viktor Makarov,Виктор Макаров,66,,,,,,,,,,,200,210,-222.5,210,,210,67.5,D,Raw,Yes,Open,25,1993-05-07
1,M,Andrey Koftunov,Андрей Кофтунов,74.3,,,,,,,,,,,207.5,225,-237.5,225,,225,75,D,Raw,Yes,Open,22,1995-06-02
2,M,Dzhalil Kyazimov,Джалил Кязимов,72.3,,,,,,,,,,,185,195,207.5,207.5,,207.5,75,D,Raw,Yes,Open,24,1993-12-08
1,M,Sergey Melnikov,Сергей Мельников,80.95,,,,,,,,,,,192.5,-200,,192.5,,192.5,82.5,D,Raw,Yes,Teen 16-17,16,2001-11-30
1,M,Egor Denisov,Егор Денисов,80.25,,,,,,,,,,,192.5,205,-207.5,205,,205,82.5,D,Raw,Yes,Teen 18-19,18,2000-03-28
1,M,Danil Praded,Данил Прадед,88.4,,,,,,,,,,,170,180,185,185,,185,90,D,Raw,Yes,Teen 16-17,16,2001-07-09
1,M,Daniil Liganov,Даниил Лиганов,89.3,,,,,,,,,,,260,-270,-270,260,,260,90,D,Raw,Yes,Open,23,1995-04-18
2,M,Dmitriy Vasilev,Дмитрий Васильев,89,,,,,,,,,,,220,-235,235,235,,235,90,D,Raw,Yes,Open,33,1985-01-27
3,M,Say-Kherel Tyulyush,Сай-Херел Тюлюш,89,,,,,,,,,,,205,-222.5,-222.5,205,,205,90,D,Raw,Yes,Open,30,1988-03-02
1,M,Aleksandr Snegiryov,Александр Снегирёв,99.5,,,,,,,,,,,205,215,-225,215,,215,100,D,Raw,Yes,Open,26,1992-03-13
1,M,Dmitriy Lavrentev,Дмитрий Лаврентьев,109,,,,,,,,,,,-197.5,197.5,-205,197.5,,197.5,110,D,Raw,Yes,Teen 18-19,18,2000-04-07
1,F,Kristina Meshkova,Кристина Мешкова,54.7,,,,,,,,,,,70,77.5,82.5,82.5,,82.5,56,D,Raw,No,Open,25,1993-04-17
1,M,Ivan Chernyavskiy,Иван Чернявский,65.2,,,,,,,,,,,130,150,160,160,,160,67.5,D,Raw,No,Teen 16-17,16,2001-08-04
1,M,Alekey Chir,Алекей Чир,66.8,,,,,,,,,,,227.5,,,227.5,,227.5,67.5,D,Raw,No,Open,30,1987-06-30
1,M,Ruslan Lopatin,Руслан Лопатин,80.5,,,,,,,,,,,242.5,-250,250,250,,250,82.5,D,Raw,No,Juniors 20-23,22,1995-05-23
1,M,Nikita Styazhkin,Никита Стяжкин,89.9,,,,,,,,,,,245,260,-270,260,,260,90,D,Raw,No,Teen 18-19,18,1999-06-17
1,M,Ilya Kropotov,Илья Кропотов,91.2,,,,,,,,,,,130,140,145,145,,145,100,D,Raw,No,Teen 16-17,17,2000-12-31
DQ,M,Andrey Novikov,Андрей Новиков,96,,,,,,,,,,,-230,-230,-230,,,,100,D,Raw,No,Juniors 20-23,22,1995-12-25
1,M,Nikolay Cherepanov,Николай Черепанов,108.5,,,,,,,,,,,280,-290,-290,280,,280,110,D,Raw,No,Juniors 20-23,20,1997-09-18
1,M,Konstantin Mineev,Константин Минеев,115.7,,,,,,,,,,,310,335,-345,335,,335,125,D,Raw,No,Open,27,1990-09-03
1,M,Maksim Gramatunov,Максим Граматунов,115.6,,,,,,,,,,,200,210,-220,210,,210,125,D,Raw,No,Masters 40-44,41,1976-08-25
1,M,Anatoliy Likhachev,Анатолий Лихачев,74.5,,,,,,,,,,,170,185,200,200,,200,75,D,Raw,Yes,Open,29,1989-02-28
DQ,M,Aleksandr Rogatenko,Александр Рогатенко,89.7,,,,,,,,,,,-260.5,-260.5,-260.5,,,,90,D,Raw,Yes,Open,36,1982-05-07
